<?xml version="1.0" encoding="UTF-8"?>
<!DOCTYPE svg PUBLIC "-//W3C//DTD SVG 1.1//EN" "http://www.w3.org/Graphics/SVG/1.1/DTD/svg11.dtd">
<!-- Creator: CorelDRAW X6 -->
<svg xmlns="http://www.w3.org/2000/svg" xml:space="preserve" width="160mm" height="140mm" version="1.1" style="shape-rendering:geometricPrecision; text-rendering:geometricPrecision; image-rendering:optimizeQuality; fill-rule:evenodd; clip-rule:evenodd"
viewBox="0 0 493 432"
 xmlns:xlink="http://www.w3.org/1999/xlink">
 <defs>
  <style type="text/css">
   <![CDATA[
    .fil0 {fill:none}
    .fil1 {fill:#FEFEFE}
   ]]>
  </style>
 </defs>
 <g id="Слой_x0020_1">
  <metadata id="CorelCorpID_0Corel-Layer"/>
  <g id="_430610152">
   <rect class="fil0" width="493" height="432"/>
   <path class="fil1" d="M147 103c55,-55 144,-55 199,0 55,55 55,144 0,198l-99 100 -100 -100 0 0 0 0c-55,-54 -55,-143 0,-198zm78 77c12,-12 31,-12 43,0 13,12 13,32 0,44 -12,12 -31,12 -43,0 -12,-12 -12,-32 0,-44z"/>
  </g>
 </g>
</svg>
